613 = {

    # Misc
    culture = zanite
    religion = cult_of_the_dame

    # History
}

615 = {

    # Misc
    culture = zanite
    religion = cult_of_the_dame

    # History
}

616 = {

    # Misc
    culture = zanite
    religion = cult_of_the_dame

    # History
}

617 = {

    # Misc
    culture = zanite
    religion = cult_of_the_dame

    # History
}

618 = {

    # Misc
    culture = zanite
    religion = cult_of_the_dame

    # History
}

619 = {

    # Misc
    culture = zanite
    religion = cult_of_the_dame

    # History
}

620 = {

    # Misc
    culture = zanite
    religion = cult_of_the_dame

    # History
}

621 = {

    # Misc
    culture = zanite
    religion = cult_of_the_dame

    # History
}

622 = {

    # Misc
    culture = zanite
    religion = cult_of_the_dame

    # History
}

623 = {

    # Misc
    culture = zanite
    religion = cult_of_the_dame

    # History
}

624 = {

    # Misc
    culture = zanite
    religion = cult_of_the_dame

    # History
}

628 = {

    # Misc
    culture = zanite
    religion = cult_of_the_dame

    # History
}