62 = {

    # Misc
    culture = ruby_dwarvish
    religion = cult_of_the_dame

    # History

}

64 = {

    # Misc
    culture = ruby_dwarvish
    religion = cult_of_the_dame

    # History

}

65 = {

    # Misc
    culture = ruby_dwarvish
    religion = cult_of_the_dame

    # History

}